<?xml version="1.0" encoding="utf-8"?>
<svg viewBox="98.88 107.656 649.918 628.604" xmlns="http://www.w3.org/2000/svg">
  <g transform="matrix(0.1, 0, 0, -0.1, 0, 850)" fill="#000000" stroke="none">
    <path d="M3534 7125 c-378 -69 -703 -284 -919 -607 -43 -65 -1359 -2341 -1371 -2371 -6 -16 55 -17 946 -15 l953 3 391 677 391 678 1177 0 1178 0 24 38 c30 46 916 1582 923 1599 8 19 -3589 17 -3693 -2z" style="fill: rgb(255, 78, 45);"/>
    <path d="M5143 4113 c-104 -181 -281 -487 -393 -680 l-203 -353 -1177 0 c-930 0 -1180 -3 -1187 -12 -13 -17 -943 -1628 -943 -1634 0 -2 829 -3 1843 -2 l1842 3 115 31 c329 90 595 275 792 551 55 77 1398 2396 1398 2414 0 5 -370 9 -949 9 l-949 0 -189 -327z" style="fill: rgb(255, 78, 45);"/>
  </g>
</svg>